…
--- Summary by Brand and Cash_Back ---
> combined_data %>%
+   group_by(Brand, Cash_Back) %>%
+   summarise(
+     count        = n(),
+     mean_price   = mean(Price),
+     mean_chosen  = mean(Chosen),
+     .groups = "drop"
+   ) %>%
+   arrange(Cash_Back, Brand) %>%
+   print()
# A tibble: 29 × 5
   Brand          Cash_Back    count mean_price mean_chosen
   <fct>          <fct>        <int>      <dbl>       <dbl>
 1 Outside Option No Cash Back 13598       0          0.266
 2 A              No Cash Back  2387       3.39       0.315
 3 B              No Cash Back  2416       3.60       0.334
 4 C              No Cash Back  2377       3.38       0.289
 5 D              No Cash Back  2655       3.40       0.241
 6 E              No Cash Back  2519       3.57       0.187
 7 F              No Cash Back  2543       3.48       0.251
 8 G              No Cash Back  2525       3.57       0.225
 9 A              100 EUR       1012       5.95       0.261
10 B              100 EUR       1143       6.14       0.308
# ℹ 19 more rows
# ℹ Use `print(n = ...)` to see more rows
…
